4 4 4 4 4 4 9 9 9 9 6 8
4 4 4 4 4 4 9 9 9 9 6 8
1 1 1 1 1 1 2 9 9 9 6 8
4 4 4 4 4 4 6 9 9 9 6 8
4 4 4 4 4 4 6 9 9 9 6 8
4 4 4 4 4 4 6 9 9 9 5 1
9 0 1 1 1 1 3 1 1 1 1 1
9 6 8 8 8 8 6 9 9 9 9 9
9 6 8 8 8 8 6 9 9 9 9 9
9 6 8 8 8 8 6 9 9 9 9 9
9 6 8 8 8 8 6 9 9 9 9 9
9 6 8 8 8 8 6 9 9 9 9 9